…
Calculating the yearly mean and standard deviation of returns.

multpl_stock_monthly_returns %>%
  mutate(year = year(date)) %>%
  group_by(symbol, year) %>%
  summarise(mean = mean(returns),
            sd = sd(returns))

## # A tibble: 30 x 4
## # Groups:   symbol [?]
##    symbol  year      mean     sd
##    <chr>  <dbl>     <dbl>  <dbl>
##  1 AAPL    2013  0.0210   0.0954
##  2 AAPL    2014  0.0373   0.0723
##  3 AAPL    2015 -0.000736 0.0629
##  4 AAPL    2016  0.0125   0.0752
##  5 AAPL    2017  0.0352   0.0616
##  6 AAPL    2018  0.0288   0.0557
##  7 AMZN    2013  0.0391   0.0660
##  8 AMZN    2014 -0.0184   0.0706
##  9 AMZN    2015  0.0706   0.0931
## 10 AMZN    2016  0.0114   0.0761
## # ... with 20 more rows
…
