…
We can see that the length of the text variable is 343 and we have the data that we were looking for. Next we will convert this 343 length vector into a table of 7 columns and 343/7 or 49 rows

# load the timetk library
library(timetk)
# First create a matrix

warren_mat <- matrix(text, ncol = 7, byrow = TRUE)

warren_df <- as.data.frame(warren_mat, stringsAsFactors = FALSE)

warren_df <- tk_tbl(warren_df, silent = TRUE)

warren_df

## # A tibble: 49 x 7
##    V1      V2               V3        V4       V5         V6         V7        
##    <chr>   <chr>            <chr>     <chr>    <chr>      <chr>      <chr>     
##  1 History Stock            % of por~ Shares   Recent ac~ Reported ~ Value     
##  2 =       AAPL - Apple In~ 25.96     248,838~ Reduce 0.~ $223.97    $55,732,4~
##  3 =       BAC - Bank of A~ 12.60     927,248~ " "        $29.17     $27,047,8~
##  4 =       KO - Coca Cola ~ 10.14     400,000~ " "        $54.44     $21,776,0~
##  5 =       WFC - Wells Far~ 8.89      378,369~ Reduce 7.~ $50.44     $19,084,9~
##  6 =       AXP - American ~ 8.35      151,610~ " "        $118.28    $17,932,5~
##  7 =       KHC - Kraft Hei~ 4.24      325,634~ " "        $27.94     $9,096,60~
##  8 =       USB - U.S. Banc~ 3.41      132,459~ " "        $55.34     $7,330,31~
##  9 =       JPM - JPMorgan ~ 3.26      59,514,~ " "        $117.69    $7,004,31~
## 10 =       MCO - Moody's C~ 2.35      24,669,~ " "        $204.83    $5,053,11~
## # ... with 39 more rows
…
# Delete the first row
warren_df <- warren_df[-1,]

warren_df <- warren_df %>%
  select(-c(History,`Recent activity`)) %>%
  `colnames<-`(c('stock','portfolio_weight', 'shares','cost_price', 'value')) %>%
  separate(stock, into = c('symbol', 'name'), sep = '-') %>%
  mutate_all(.funs = str_trim) %>%
  mutate_at(.vars = c('shares','cost_price','value'), .funs = parse_number) %>%
  mutate(portfolio_weight = parse_number(portfolio_weight)/100)

warren_df

## # A tibble: 48 x 6
##    symbol name                 portfolio_weight    shares cost_price      value
##    <chr>  <chr>                           <dbl>     <dbl>      <dbl>      <dbl>
##  1 AAPL   Apple Inc.                     0.260  248838679      224.     5.57e10
##  2 BAC    Bank of America Cor~           0.126  927248600       29.2    2.70e10
##  3 KO     Coca Cola Co.                  0.101  400000000       54.4    2.18e10
##  4 WFC    Wells Fargo                    0.0889 378369018       50.4    1.91e10
##  5 AXP    American Express               0.0835 151610700      118.     1.79e10
##  6 KHC    Kraft Heinz Co.                0.0424 325634818       27.9    9.10e 9
##  7 USB    U.S. Bancorp                   0.0341 132459618       55.3    7.33e 9
##  8 JPM    JPMorgan Chase & Co.           0.0326  59514932      118.     7.00e 9
##  9 MCO    Moody's Corp.                  0.0235  24669778      205.     5.05e 9
## 10 DAL    Delta Air Lines Inc.           0.019   70910456       57.6    4.08e 9
## # ... with 38 more rows
…
  # Return the values
  return(investor_df)
}

Lets test it.

all_investors <- get_all_investors()

all_investors

## # A tibble: 64 x 3
##    investor                           update_date url                          
##    <chr>                              <date>      <chr>                        
##  1 Thomas Gayner - Markel Asset Mana~ 2020-02-07  https://www.dataroma.com/m/h~
##  2 William Von Mueffling - Cantillon~ 2020-02-07  https://www.dataroma.com/m/h~
##  3 Kahn Brothers Advisors - Kahn Bro~ 2020-01-27  https://www.dataroma.com/m/h~
##  4 Wallace Weitz - Weitz Value        2020-01-22  https://www.dataroma.com/m/h~
##  5 Tweedy Browne Co. - Tweedy Browne~ 2020-01-21  https://www.dataroma.com/m/h~
##  6 Guy Spier - Aquamarine Capital     2020-01-17  https://www.dataroma.com/m/h~
##  7 Sam Peters - ClearBridge Value Tr~ 2020-01-16  https://www.dataroma.com/m/h~
##  8 Dodge & Cox                        2020-01-15  https://www.dataroma.com/m/h~
##  9 Richard Pzena - Hancock Classic V~ 2020-01-15  https://www.dataroma.com/m/h~
## 10 Mairs & Power - Mairs & Power Gro~ 2020-01-15  https://www.dataroma.com/m/h~
## # ... with 54 more rows
…
Lets try one more investor - Daniel Loeb.

loeb <- get_investor_portfolio('Loeb')

loeb

## # A tibble: 39 x 6
##    symbol name                     portfolio_weight  shares cost_price    value
##    <chr>  <chr>                               <dbl>   <dbl>      <dbl>    <dbl>
##  1 BAX    Baxter International In~           0.175   1.68e7       87.5   1.47e9
##  2 UTX    United Technologies                0.0974  6.00e6      137.    8.19e8
##  3 CPB    Campbell Soup                      0.0948  1.70e7       46.9   7.98e8
##  4 AGN    Allergan Plc                       0.072   3.60e6      168.    6.06e8
##  5 DHR    Danaher Corp.                      0.0637  3.71e6      144.    5.36e8
##  6 BID    Sotheby's                          0.0451  6.66e6       57.0   3.80e8
##  7 CRM    Salesforce.com                     0.0441  2.50e6      148.    3.71e8
##  8 FIS    Fidelity National Infor~           0.0394  2.50e6      133.    3.32e8
##  9 BURL   Burlington Stores Inc.             0.0356  1.50e6      200.    3.00e8
## 10 IQV    IQVIA Holdings Inc.                0.0355  2.00e6      149.    2.99e8
## # ... with 29 more rows
…
