Webscraping with R :: Coding Finance
…
# Since we are given just the year for
# the founding, we will assume 
# Founding day/month as 1st Jan

raw_data <- raw_data %>%
  mutate(year_founded = str_sub(.$year_founded,start = 1,end = 4)) %>%
  mutate(year_founded = make_date(year = year_founded,month = 1,day = 1))

# Saving it into a new table

sp_constituents <- raw_data

sp_constituents

## # A tibble: 505 x 8
##    symbol name  GICS_Sector GICS_SubIndustry headquarters date_first_added
##    <chr>  <chr> <chr>       <chr>            <chr>        <date>          
##  1 MMM    3M C~ Industrials Industrial Cong~ St. Paul, M~ NA              
##  2 ABT    Abbo~ Health Care Health Care Equ~ North Chica~ 1964-03-31      
##  3 ABBV   AbbV~ Health Care Pharmaceuticals  North Chica~ 2012-12-31      
##  4 ABMD   ABIO~ Health Care Health Care Equ~ Danvers, Ma~ 2018-05-31      
##  5 ACN    Acce~ Informatio~ IT Consulting &~ Dublin, Ire~ 2011-07-06      
##  6 ATVI   Acti~ Communicat~ Interactive Hom~ Santa Monic~ 2015-08-31      
##  7 ADBE   Adob~ Informatio~ Application Sof~ San Jose, C~ 1997-05-05      
##  8 AMD    Adva~ Informatio~ Semiconductors   Santa Clara~ 2017-03-20      
##  9 AAP    Adva~ Consumer D~ Automotive Reta~ Raleigh, No~ 2015-07-09      
## 10 AES    AES ~ Utilities   Independent Pow~ Arlington, ~ 1998-10-02      
## # ... with 495 more rows, and 2 more variables: CIK <chr>,
## #   year_founded <date>
…
